ISSS608-VAA - Take-home Exercise 1
…
is.na() function is also used to confirm that there are no missing values in the demo_info dataset.

#Check for mising values
any(is.na(demo_info))

[1] FALSE

# check unique values and their frequency for each column
demo_info

# A tibble: 1,011 × 7
   participantId householdSize haveKids   age educationLevel      interestGroup
           <dbl>         <dbl> <lgl>    <dbl> <chr>               <chr>        
 1             0             3 TRUE        36 HighSchoolOrCollege H            
 2             1             3 TRUE        25 HighSchoolOrCollege B            
 3             2             3 TRUE        35 HighSchoolOrCollege A            
 4             3             3 TRUE        21 HighSchoolOrCollege I            
 5             4             3 TRUE        43 Bachelors           H            
 6             5             3 TRUE        32 HighSchoolOrCollege D            
 7             6             3 TRUE        26 HighSchoolOrCollege I            
 8             7             3 TRUE        27 Bachelors           A            
 9             8             3 TRUE        20 Bachelors           G            
10             9             3 TRUE        35 Bachelors           D            
# ℹ 1,001 more rows
# ℹ 1 more variable: joviality <dbl>
…
demo_info$educationLevel<-factor((demo_info$educationLevel),
                                 levels=c("Low","HighSchoolOrCollege",                                               "Bachelors", "Graduate"))

# Discrete data

demo_info$householdSize<-as.integer(demo_info$householdSize)

Duplicated Data

Duplicated data is detected by select rows with duplicate data for financial journal. Since at each timestamp there can only be one single transaction of the same category and amount, the duplicate data should be excluded from analysis.

#check for duplicates; find all rows with the same values for all columns
transactions[duplicated(transactions),]

# A tibble: 1,113 × 4
   participantId timestamp           category   amount
   <fct>         <dttm>              <fct>       <dbl>
 1 0             2022-03-01 00:00:00 Shelter    -555. 
 2 0             2022-03-01 00:00:00 Education   -38.0
 3 1             2022-03-01 00:00:00 Shelter    -555. 
 4 1             2022-03-01 00:00:00 Education   -38.0
 5 2             2022-03-01 00:00:00 Shelter    -557. 
 6 2             2022-03-01 00:00:00 Education   -12.8
 7 3             2022-03-01 00:00:00 Shelter    -555. 
 8 3             2022-03-01 00:00:00 Education   -38.0
 9 4             2022-03-01 00:00:00 Shelter   -1556. 
10 4             2022-03-01 00:00:00 Education   -12.8
# ℹ 1,103 more rows
…
# Use group by to get monthly expense by participantID, month and category

transactions<-transactions %>%
  select(participantId,month,category,amount) %>% 
  group_by(participantId,month,category)%>%
  summarize(monthly_amt=sum(amount))

transactions

# A tibble: 44,524 × 4
# Groups:   participantId, month [10,691]
   participantId month category   monthly_amt
   <fct>         <dbl> <fct>            <dbl>
 1 0                 1 Education         38.0
 2 0                 1 Food             265. 
 3 0                 1 Recreation       210. 
 4 0                 1 Shelter          555. 
 5 0                 1 Wage            9048. 
 6 0                 2 Education         38.0
 7 0                 2 Food             239. 
 8 0                 2 Recreation       320. 
 9 0                 2 Shelter          555. 
10 0                 2 Wage            8226. 
# ℹ 44,514 more rows

Convert transaction category to columns

# Put value 0 for missing values, rental adjustment category is not applicable for all participants 
transactions_amt<-transactions %>% 
  pivot_wider(
    names_from=category,
    values_from=monthly_amt,
    values_fill = 0)

transactions_amt

# A tibble: 10,691 × 8
# Groups:   participantId, month [10,691]
   participantId month Education  Food Recreation Shelter   Wage RentAdjustment
   <fct>         <dbl>     <dbl> <dbl>      <dbl>   <dbl>  <dbl>          <dbl>
 1 0                 1      38.0  265.      210.     555.  9048.              0
 2 0                 2      38.0  239.      320.     555.  8226.              0
 3 0                 3      38.0  268.      349.     555. 11932.              0
 4 0                 4      38.0  266.      219.     555.  8637.              0
 5 0                 5      38.0  265.      383.     555.  9048.              0
 6 0                 6      38.0  257.      466.     555.  9048.              0
 7 0                 7      38.0  270.     1070.     555.  8637.              0
 8 0                 8      38.0  262.      314.     555.  9459.              0
 9 0                 9      38.0  256.      295.     555.  9048.              0
10 0                10      38.0  267.       25.0    555.  8637.              0
# ℹ 10,681 more rows

Group Shelter and Rental Adjustment as Rental expense

The actual rental expense should take into account the rental adjustment for an accurate presentation. Rental expense is calculated by the following formula: Rental expense=Shelter - RentAdjustment

We will also get the total spending from combining all expenses.

transactions_amt<-transactions_amt%>% 
  mutate(Rent=Shelter - RentAdjustment) %>% 
  mutate(Monthly_spend=sum(Education, Food, Recreation, Rent))

transactions_amt

# A tibble: 10,691 × 10
# Groups:   participantId, month [10,691]
   participantId month Education  Food Recreation Shelter   Wage RentAdjustment
   <fct>         <dbl>     <dbl> <dbl>      <dbl>   <dbl>  <dbl>          <dbl>
 1 0                 1      38.0  265.      210.     555.  9048.              0
 2 0                 2      38.0  239.      320.     555.  8226.              0
 3 0                 3      38.0  268.      349.     555. 11932.              0
 4 0                 4      38.0  266.      219.     555.  8637.              0
 5 0                 5      38.0  265.      383.     555.  9048.              0
 6 0                 6      38.0  257.      466.     555.  9048.              0
 7 0                 7      38.0  270.     1070.     555.  8637.              0
 8 0                 8      38.0  262.      314.     555.  9459.              0
 9 0                 9      38.0  256.      295.     555.  9048.              0
10 0                10      38.0  267.       25.0    555.  8637.              0
# ℹ 10,681 more rows
# ℹ 2 more variables: Rent <dbl>, Monthly_spend <dbl>

Get median monthly spending and join tables

median_spend<-transactions_amt %>% 
 select(participantId,Education, Food, Recreation, Rent, Monthly_spend, Wage) %>% 
  group_by(participantId)%>%
  summarize(Education=median(Education),
            Food=median(Food),
            Recreation=median(Recreation),
            Wage=median(Wage),
            Rent=median(Rent),
            Monthly_spend=median(Monthly_spend))
median_spend

# A tibble: 1,011 × 7
   participantId Education  Food Recreation   Wage  Rent Monthly_spend
   <fct>             <dbl> <dbl>      <dbl>  <dbl> <dbl>         <dbl>
 1 0                  38.0  265.       334.  9048.  555.         1190.
 2 1                  38.0  263.       472.  7951.  555.         1333.
 3 2                  12.8  290.       343.  6968.  557.         1201.
 4 3                  38.0  287.       328.  6735.  555.         1197.
 5 4                  12.8  274.       448.  8732. 1002.         1731.
 6 5                  12.8  348.       418.  1760   600.         1383.
 7 6                  12.8  321.       658.  1790.  581.         1575.
 8 7                  12.8  512.       412.  5912. 1013.         1952.
 9 8                  12.8  499.       442.  3508. 1180.         2123.
10 9                  91.1  288.       383. 12613.  558.         1319.
# ℹ 1,001 more rows

In order to understand whether different demographics have difference in spending pattern or financial health, the two tables need to be combined using participantId as key.

combined<-left_join(demo_info, median_spend, by ="participantId")

combined

# A tibble: 1,011 × 13
   participantId householdSize haveKids   age educationLevel      interestGroup
   <fct>                 <int> <lgl>    <dbl> <fct>               <fct>        
 1 0                         3 TRUE        36 HighSchoolOrCollege H            
 2 1                         3 TRUE        25 HighSchoolOrCollege B            
 3 2                         3 TRUE        35 HighSchoolOrCollege A            
 4 3                         3 TRUE        21 HighSchoolOrCollege I            
 5 4                         3 TRUE        43 Bachelors           H            
 6 5                         3 TRUE        32 HighSchoolOrCollege D            
 7 6                         3 TRUE        26 HighSchoolOrCollege I            
 8 7                         3 TRUE        27 Bachelors           A            
 9 8                         3 TRUE        20 Bachelors           G            
10 9                         3 TRUE        35 Bachelors           D            
# ℹ 1,001 more rows
# ℹ 7 more variables: joviality <dbl>, Education <dbl>, Food <dbl>,
#   Recreation <dbl>, Wage <dbl>, Rent <dbl>, Monthly_spend <dbl>
…
